<svg width="25" height="24" viewBox="0 0 25 24" fill="none" xmlns="http://www.w3.org/2000/svg">
<path d="M12.75 22C18.2728 22 22.75 17.5228 22.75 12C22.75 6.47715 18.2728 2 12.75 2C7.22715 2 2.75 6.47715 2.75 12C2.75 17.5228 7.22715 22 12.75 22Z" stroke="#757D8A" stroke-width="2" stroke-linecap="round" stroke-linejoin="round"/>
<path d="M15.75 9L9.75 15" stroke="#757D8A" stroke-width="2" stroke-linecap="round" stroke-linejoin="round"/>
<path d="M9.75 9L15.75 15" stroke="#757D8A" stroke-width="2" stroke-linecap="round" stroke-linejoin="round"/>
</svg>
